…
**Clean dataset**

``` r
birthweight = read_csv(file = "./data/birthweight.csv") %>%
  janitor::clean_names() %>%
  mutate(babysex = factor(babysex, labels = c("male", "female")),
         frace = factor(frace, labels = c("White", "Black", " Asian", "Puerto Rican","Other")),
         malform = factor(malform, labels = c("absent", "present")),
         mrace = factor(mrace, labels = c("White", "Black", " Asian", "Puerto Rican")),
         ) %>%
  drop_na()
birthweight
```

    ## # A tibble: 4,342 x 20
    ##    babysex bhead blength   bwt delwt fincome frace gaweeks malform menarche
    ##    <fct>   <dbl>   <dbl> <dbl> <dbl>   <dbl> <fct>   <dbl> <fct>      <dbl>
    ##  1 female     34      51  3629   177      35 White    39.9 absent        13
    ##  2 male       34      48  3062   156      65 Black    25.9 absent        14
    ##  3 female     36      50  3345   148      85 White    39.9 absent        12
    ##  4 male       34      52  3062   157      55 White    40   absent        14
    ##  5 female     34      52  3374   156       5 White    41.6 absent        13
    ##  6 male       33      52  3374   129      55 White    40.7 absent        12
    ##  7 female     33      46  2523   126      96 Black    40.3 absent        14
    ##  8 female     33      49  2778   140       5 White    37.4 absent        12
    ##  9 male       36      52  3515   146      85 White    40.3 absent        11
    ## 10 male       33      50  3459   169      75 Black    40.7 absent        12
    ## # … with 4,332 more rows, and 10 more variables: mheight <dbl>,
    ## #   momage <dbl>, mrace <fct>, parity <dbl>, pnumlbw <dbl>, pnumsga <dbl>,
    ## #   ppbmi <dbl>, ppwt <dbl>, smoken <dbl>, wtgain <dbl>
…
    ## Warning: unnest() has a new interface. See ?unnest for details.
    ## Try `df %>% unnest(c(results, results2))`, with `mutate()` if needed

``` r
bootstrap_weather
```

    ## # A tibble: 5,000 x 2
    ##    r.squared   log
    ##        <dbl> <dbl>
    ##  1     0.915  2.02
    ##  2     0.893  2.03
    ##  3     0.907  2.00
    ##  4     0.912  1.97
    ##  5     0.920  2.01
    ##  6     0.911  2.02
    ##  7     0.914  2.02
    ##  8     0.917  2.02
    ##  9     0.911  2.02
    ## 10     0.922  2.00
    ## # … with 4,990 more rows
…
